    30  angstroemd0
free
 C -7.26444565012864918E-01  2.45167329573049209E+00  5.40477581406217460E-07
 C  7.26446470736426986E-01  2.45167842981754625E+00  7.05222366901828744E-07
 C  1.40780929058464666E+00  1.23424415534204468E+00  9.36886165673228012E-07
 C  7.27348319715477420E-01  2.49328386718921440E-06  1.02069085924189652E-06
 C -7.27347102957679570E-01 -2.02374774291393030E-06  9.91710983703822225E-07
 C -1.40780721749931237E+00  1.23424722745976201E+00  7.22587494843801016E-07
 C -1.40894590371258466E+00  3.70858036957054482E+00 -4.00341651866119462E-07
 C  1.40894867625352083E+00  3.70857557076960553E+00 -3.57794457132680999E-08
 H  2.50029006983673074E+00  1.23349407096656227E+00  8.53259975028792047E-07
 C  1.40780758625553348E+00 -1.23424725040531302E+00  7.42238645690936702E-07
 C -1.40780822660203686E+00 -1.23424328124814831E+00  8.89470680622838005E-07
 H -2.50028826175496288E+00  1.23349148093121852E+00  4.41489004975664752E-07
 C  7.13612229795485997E-01  4.89010249033445099E+00 -1.17865458538023261E-06
 C -7.13615135166906778E-01  4.89009717289166712E+00 -1.38369164369007589E-06
 H -2.50039938283189489E+00  3.70534284459953955E+00 -3.27625272997111758E-07
 H  2.50039944305767170E+00  3.70534891811310052E+00  3.49253081443026964E-07
 H  1.24867417471308273E+00  5.83995963273494390E+00 -9.92159518539957150E-07
 H -1.24867492541937297E+00  5.83996061640871122E+00 -1.26145647916670996E-06
 C  7.26445088058273902E-01 -2.45167371119044386E+00  4.84776220009321204E-07
 C -7.26446205888707897E-01 -2.45167862189697727E+00  6.33982173644834971E-07
 H  2.50028864695855324E+00 -1.23349220224542244E+00  5.77374657824790544E-07
 H -2.50028898203014149E+00 -1.23349205193707512E+00  8.90869414782787326E-07
 C  1.40894577710424840E+00 -3.70858108601159575E+00 -3.70057006901299660E-07
 C -1.40894934858895282E+00 -3.70857512228232666E+00  4.39025116645060796E-09
 C -7.13612883626138395E-01 -4.89010281168632144E+00 -1.16407160167165457E-06
 C  7.13614594686642234E-01 -4.89009745818004760E+00 -1.31007601359240603E-06
 H  2.50039890716959201E+00 -3.70534359419345716E+00 -4.00252598008377475E-07
 H -2.50039970459180605E+00 -3.70534814332272511E+00  3.30324519817254647E-07
 H -1.24867507551819146E+00 -5.83995975984144078E+00 -9.08433639169825984E-07
 H  1.24867364627565669E+00 -5.83996165076499807E+00 -1.38240462010319563E-06
